PWD /home/keitokohinata/latex_notes
INPUT /etc/texmf/web2c/texmf.cnf
INPUT /usr/share/texmf/web2c/texmf.cnf
INPUT /usr/share/texlive/texmf-dist/web2c/texmf.cnf
INPUT /etc/texmf/web2c/texmf.cnf
INPUT /usr/share/texmf/web2c/texmf.cnf
INPUT /usr/share/texlive/texmf-dist/web2c/texmf.cnf
INPUT /var/lib/texmf/web2c/eptex/platex.fmt
INPUT /home/keitokohinata/latex_notes/latex.tex
OUTPUT out/latex.log
INPUT /usr/share/texlive/texmf-dist/tex/platex/jsclasses/jsarticle.cls
INPUT /usr/share/texlive/texmf-dist/tex/platex/jsclasses/jsarticle.cls
INPUT /usr/share/texlive/texmf-dist/fonts/map/fontname/texfonts.map
INPUT /usr/share/texlive/texmf-dist/fonts/tfm/ptex-fonts/standard/tmin10.tfm
INPUT /usr/share/texlive/texmf-dist/fonts/tfm/ptex-fonts/jis/jis.tfm
INPUT /usr/share/texlive/texmf-dist/fonts/tfm/ptex-fonts/standard/tmin10.tfm
INPUT /usr/share/texlive/texmf-dist/fonts/tfm/ptex-fonts/jis/jis.tfm
INPUT /usr/share/texlive/texmf-dist/fonts/tfm/public/cm/cmr8.tfm
INPUT /usr/share/texlive/texmf-dist/tex/platex/jsclasses/jslogo.sty
INPUT /usr/share/texlive/texmf-dist/tex/platex/jsclasses/jslogo.sty
INPUT /usr/share/texlive/texmf-dist/tex/platex/jsclasses/jslogo.sty
INPUT mysty.sty
INPUT mysty.sty
INPUT /usr/share/texlive/texmf-dist/tex/latex/graphics/graphicx.sty
INPUT /usr/share/texlive/texmf-dist/tex/latex/graphics/graphicx.sty
INPUT /usr/share/texlive/texmf-dist/tex/latex/graphics/keyval.sty
INPUT /usr/share/texlive/texmf-dist/tex/latex/graphics/keyval.sty
INPUT /usr/share/texlive/texmf-dist/tex/latex/graphics/graphics.sty
INPUT /usr/share/texlive/texmf-dist/tex/latex/graphics/graphics.sty
INPUT /usr/share/texlive/texmf-dist/tex/latex/graphics/trig.sty
INPUT /usr/share/texlive/texmf-dist/tex/latex/graphics/trig.sty
INPUT /usr/share/texlive/texmf-dist/tex/latex/graphics-cfg/graphics.cfg
INPUT /usr/share/texlive/texmf-dist/tex/latex/graphics-cfg/graphics.cfg
INPUT /usr/share/texlive/texmf-dist/tex/latex/graphics-def/dvipdfmx.def
INPUT /usr/share/texlive/texmf-dist/tex/latex/graphics-def/dvipdfmx.def
INPUT /usr/share/texlive/texmf-dist/tex/latex/tools/bm.sty
INPUT /usr/share/texlive/texmf-dist/tex/latex/tools/bm.sty
INPUT /usr/share/texlive/texmf-dist/tex/latex/tools/array.sty
INPUT /usr/share/texlive/texmf-dist/tex/latex/tools/array.sty
INPUT /usr/share/texlive/texmf-dist/tex/latex/booktabs/booktabs.sty
INPUT /usr/share/texlive/texmf-dist/tex/latex/booktabs/booktabs.sty
INPUT /usr/share/texlive/texmf-dist/tex/latex/amsmath/amsmath.sty
INPUT /usr/share/texlive/texmf-dist/tex/latex/amsmath/amsmath.sty
INPUT /usr/share/texlive/texmf-dist/tex/latex/amsmath/amstext.sty
INPUT /usr/share/texlive/texmf-dist/tex/latex/amsmath/amstext.sty
INPUT /usr/share/texlive/texmf-dist/tex/latex/amsmath/amsgen.sty
INPUT /usr/share/texlive/texmf-dist/tex/latex/amsmath/amsgen.sty
INPUT /usr/share/texlive/texmf-dist/tex/latex/amsmath/amsbsy.sty
INPUT /usr/share/texlive/texmf-dist/tex/latex/amsmath/amsbsy.sty
INPUT /usr/share/texlive/texmf-dist/tex/latex/amsmath/amsopn.sty
INPUT /usr/share/texlive/texmf-dist/tex/latex/amsmath/amsopn.sty
INPUT /usr/share/texlive/texmf-dist/tex/latex/float/float.sty
INPUT /usr/share/texlive/texmf-dist/tex/latex/float/float.sty
INPUT /usr/share/texlive/texmf-dist/tex/latex/tools/layout.sty
INPUT /usr/share/texlive/texmf-dist/tex/latex/tools/layout.sty
INPUT /usr/share/texlive/texmf-dist/tex/latex/multirow/multirow.sty
INPUT /usr/share/texlive/texmf-dist/tex/latex/multirow/multirow.sty
INPUT /usr/share/texlive/texmf-dist/tex/latex/listings/listings.sty
INPUT /usr/share/texlive/texmf-dist/tex/latex/listings/listings.sty
INPUT /usr/share/texlive/texmf-dist/tex/latex/listings/lstmisc.sty
INPUT /usr/share/texlive/texmf-dist/tex/latex/listings/lstmisc.sty
INPUT /usr/share/texlive/texmf-dist/tex/latex/listings/listings.cfg
INPUT /usr/share/texlive/texmf-dist/tex/latex/listings/listings.cfg
INPUT /usr/share/texlive/texmf-dist/tex/latex/jvlisting/jvlisting.sty
INPUT /usr/share/texlive/texmf-dist/tex/latex/jvlisting/jvlisting.sty
INPUT /usr/share/texlive/texmf-dist/tex/latex/l3backend/l3backend-dvips.def
INPUT /usr/share/texlive/texmf-dist/tex/latex/l3backend/l3backend-dvips.def
INPUT out/latex.aux
INPUT out/latex.aux
OUTPUT out/latex.aux
INPUT /usr/share/texlive/texmf-dist/fonts/tfm/ptex-fonts/standard/tgoth10.tfm
INPUT /usr/share/texlive/texmf-dist/fonts/tfm/ptex-fonts/jis/jisg.tfm
INPUT /usr/share/texlive/texmf-dist/fonts/tfm/public/cm/cmbx10.tfm
INPUT /usr/share/texlive/texmf-dist/fonts/tfm/ptex-fonts/standard/tmin10.tfm
INPUT /usr/share/texlive/texmf-dist/fonts/tfm/ptex-fonts/jis/jis.tfm
INPUT /usr/share/texlive/texmf-dist/fonts/tfm/public/amsfonts/cmextra/cmex7.tfm
INPUT /usr/share/texlive/texmf-dist/fonts/tfm/public/amsfonts/cmextra/cmex7.tfm
INPUT /usr/share/texlive/texmf-dist/fonts/tfm/ptex-fonts/jis/jis.tfm
INPUT /usr/share/texlive/texmf-dist/fonts/tfm/public/cm/cmbx7.tfm
INPUT /usr/share/texlive/texmf-dist/fonts/tfm/public/cm/cmbx5.tfm
INPUT /usr/share/texlive/texmf-dist/fonts/tfm/public/cm/cmmib10.tfm
INPUT /usr/share/texlive/texmf-dist/fonts/tfm/public/amsfonts/cmextra/cmmib7.tfm
INPUT /usr/share/texlive/texmf-dist/fonts/tfm/public/amsfonts/cmextra/cmmib5.tfm
INPUT /usr/share/texlive/texmf-dist/fonts/tfm/public/cm/cmbsy10.tfm
INPUT /usr/share/texlive/texmf-dist/fonts/tfm/public/amsfonts/cmextra/cmbsy7.tfm
INPUT /usr/share/texlive/texmf-dist/fonts/tfm/public/amsfonts/cmextra/cmbsy5.tfm
INPUT /usr/share/texlive/texmf-dist/fonts/tfm/ptex-fonts/jis/jisg.tfm
INPUT /usr/share/texlive/texmf-dist/fonts/tfm/ptex-fonts/jis/jisg.tfm
INPUT /usr/share/texlive/texmf-dist/fonts/tfm/public/cm/cmti10.tfm
OUTPUT out/latex.dvi
INPUT /usr/share/texlive/texmf-dist/fonts/tfm/public/cm/cmtt10.tfm
INPUT out/latex.aux
